<svg width="14" height="61" viewBox="0 0 14 61" fill="none" xmlns="http://www.w3.org/2000/svg">
<path d="M7 60.9987V1.07007" stroke="#CBA783" stroke-width="1.4" stroke-miterlimit="10"/>
<path d="M1 7L7 1L13 7" stroke="#CBA783" stroke-width="1.4" stroke-miterlimit="10"/>
</svg>
