<svg width="285" height="62" viewBox="0 0 285 62" fill="none" xmlns="http://www.w3.org/2000/svg">
<path d="M264.58 8.50998C265.85 7.50998 267.46 6.91998 269.2 6.91998C273.34 6.91998 276.7 10.28 276.7 14.42C276.7 16.2 276.08 17.83 275.05 19.12" stroke="#413E59" stroke-width="0.75" stroke-miterlimit="10"/>
<path d="M263.79 4.83001C267.98 2.46001 273.4 3.06001 276.97 6.64001C280.66 10.33 281.18 15.98 278.54 20.23" stroke="#413E59" stroke-width="1.4" stroke-miterlimit="10" stroke-linecap="round" stroke-linejoin="round" stroke-dasharray="1 2.5"/>
<path d="M1 61V1H263.67C263.67 12.05 272.62 21 283.67 21V61H1Z" fill="white" stroke="#CBA783" stroke-miterlimit="10"/>
<path d="M279.7 23.42C268.93 23.42 260.2 14.69 260.2 3.91998" stroke="#CBA783" stroke-width="1.4" stroke-miterlimit="10" stroke-linecap="round" stroke-dasharray="1 2.5"/>
</svg>
