<svg width="81" height="68" viewBox="0 0 81 68" fill="none" xmlns="http://www.w3.org/2000/svg">
<path d="M32.2913 31.8792C39.026 31.8792 44.4855 25.0277 44.4855 16.5759C44.4855 8.1242 39.026 1.27271 32.2913 1.27271C25.5567 1.27271 20.0972 8.1242 20.0972 16.5759C20.0972 25.0277 25.5567 31.8792 32.2913 31.8792Z" stroke="#CBA783" stroke-width="1.4" stroke-miterlimit="10"/>
<path d="M20.0972 13.8072C28.9466 7.96863 36.1139 19.2595 44.4462 14.789" stroke="#CBA783" stroke-width="1.4" stroke-miterlimit="10"/>
<path d="M37.7245 46.3249L32.2722 41.8086L26.8198 46.3249L22.0613 38.5359C21.8256 38.1497 21.95 37.6457 22.3362 37.4101C22.4671 37.3315 22.6111 37.2922 22.7616 37.2922H41.7434C42.195 37.2988 42.555 37.6719 42.5485 38.1235C42.5485 38.2675 42.5027 38.4115 42.4307 38.5359L37.7245 46.3249Z" stroke="#CBA783" stroke-width="1.4" stroke-miterlimit="10"/>
<path d="M25.4454 29.2415C25.4454 31.6764 23.7305 37.2596 23.7305 37.2596" stroke="#CBA783" stroke-width="1.4" stroke-miterlimit="10"/>
<path d="M39.2886 29.2415C39.2886 31.6764 40.9904 37.2596 40.9904 37.2596" stroke="#CBA783" stroke-width="1.4" stroke-miterlimit="10"/>
<path d="M3.98246 66.7272C2.6341 66.7272 1.54102 65.6341 1.54102 64.2858V55.3512C1.54102 44.9571 23.2391 40.3098 23.2391 40.3098L26.8588 46.3316L32.3111 41.8153L37.7635 46.3316L41.4158 40.3425C41.4158 40.3425 63.0616 44.9571 63.0616 55.3512V64.2858C63.0681 65.6276 61.9816 66.7207 60.6398 66.7272C60.6332 66.7272 60.6332 66.7272 60.6267 66.7272H3.98246Z" stroke="#CBA783" stroke-width="1.4" stroke-miterlimit="10"/>
<path d="M50.0425 57.6616V66.7271" stroke="#CBA783" stroke-width="1.4" stroke-miterlimit="10"/>
<path d="M14.9131 57.6616V66.7271" stroke="#CBA783" stroke-width="1.4" stroke-miterlimit="10"/>
<path d="M33.3519 49.8726H31.1919" stroke="#CBA783" stroke-width="1.4" stroke-miterlimit="10"/>
<path d="M33.3519 55.554H31.1919" stroke="#CBA783" stroke-width="1.4" stroke-miterlimit="10"/>
<path d="M80.0928 16.3471C80.0928 17.4402 79.2027 18.3304 78.1096 18.3304H51.4565L56.3722 13.5915V3.29552C56.3722 2.20244 57.2623 1.31226 58.3554 1.31226C58.362 1.31226 58.3685 1.31226 58.3751 1.31226H78.1554C79.2485 1.31226 80.1387 2.20244 80.1387 3.29552L80.0928 16.3471Z" stroke="#CBA783" stroke-width="1.4" stroke-miterlimit="10"/>
<path d="M63.2188 9.82104H64.8551" stroke="#CBA783" stroke-width="1.4" stroke-miterlimit="10"/>
<path d="M66.5049 9.82104H70.622" stroke="#CBA783" stroke-width="1.4" stroke-miterlimit="10" stroke-dasharray="4.02 4.02"/>
<path d="M71.4399 9.82104H73.0763" stroke="#CBA783" stroke-width="1.4" stroke-miterlimit="10"/>
</svg>
