<svg width="37" height="37" viewBox="0 0 37 37" fill="none" xmlns="http://www.w3.org/2000/svg">
<g clip-path="url(#clip0)">
<path d="M36.299 18.5C36.299 28.3489 28.3295 36.332 18.4998 36.332C8.67017 36.332 0.700586 28.3489 0.700586 18.5C0.700586 8.6511 8.67017 0.668054 18.4998 0.668054C28.3295 0.668054 36.299 8.6511 36.299 18.5Z" stroke="#CBA783" stroke-width="0.7"/>
<path fill-rule="evenodd" clip-rule="evenodd" d="M18.4998 34.3609C27.2437 34.3609 34.3321 27.2597 34.3321 18.5C34.3321 9.74031 27.2437 2.63916 18.4998 2.63916C9.75585 2.63916 2.66748 9.74031 2.66748 18.5C2.66748 27.2597 9.75585 34.3609 18.4998 34.3609ZM15.6036 13.4747L24.2921 18.5L15.6036 23.5253V13.4747Z" fill="#CBA783"/>
</g>
<defs>
<clipPath id="clip0">
<rect width="36.2985" height="36.3639" fill="white" transform="translate(0.350586 0.318054)"/>
</clipPath>
</defs>
</svg>
