<svg width="21" height="16" viewBox="0 0 21 16" fill="none" xmlns="http://www.w3.org/2000/svg">
<path d="M13.5272 0.234497C13.2867 0.234497 10.431 0.234497 10.1705 0.234497C9.93003 0.234497 7.10438 0.234497 6.88394 0.234497C0.330834 0.254537 0.0703125 0.74552 0.0703125 7.73951C0.0703125 11.3467 0.0703123 13.1503 1.02222 14.1824C1.94406 15.1844 3.48715 15.2345 6.48314 15.2345C6.64346 15.2345 9.41901 15.2345 9.58935 15.2345H12.7657C19.9902 15.2345 20.2707 14.9539 20.2707 7.72949C20.2707 0.77558 20.0102 0.254537 13.5272 0.234497ZM7.17452 11.2365V4.23249L14.1785 7.72949L7.17452 11.2365Z" fill="#413E59"/>
</svg>
