<svg width="61" height="14" viewBox="0 0 61 14" fill="none" xmlns="http://www.w3.org/2000/svg">
<path d="M60.9998 7L1.06982 7" stroke="#CBA783" stroke-width="1.4" stroke-miterlimit="10"/>
<path d="M7 13L1 7L7 1" stroke="#CBA783" stroke-width="1.4" stroke-miterlimit="10"/>
</svg>
