<svg width="42" height="28" viewBox="0 0 42 28" fill="none" xmlns="http://www.w3.org/2000/svg">
<path d="M1 1H41" stroke="#CBA783" stroke-width="2" stroke-linecap="round" stroke-linejoin="round"/>
<path d="M1 14H41" stroke="#CBA783" stroke-width="2" stroke-linecap="round" stroke-linejoin="round"/>
<path d="M1 27H41" stroke="#CBA783" stroke-width="2" stroke-linecap="round" stroke-linejoin="round"/>
</svg>
