<svg width="32" height="12" viewBox="0 0 32 12" fill="none" xmlns="http://www.w3.org/2000/svg">
<path d="M0.95 6.9884C0.73 6.9884 0.48 6.91416 0.28 6.75638C0.08 6.57077 0 6.33875 0 6.10673C0 5.87471 0.08 5.66126 0.25 5.48492C0.64 5.12297 1.25 5.15082 1.62 5.45708C1.82 5.66126 1.93 5.87471 1.93 6.10673C1.93 6.33875 1.82 6.57077 1.65 6.72854C1.45 6.90488 1.23 6.9884 0.95 6.9884Z" fill="#413E59"/>
<path d="M24.6396 6.1067C24.6396 5.61482 25.0896 5.19719 25.6196 5.19719C26.1496 5.19719 26.5696 5.61482 26.5696 6.1067C26.5696 6.59858 26.1496 6.98837 25.6196 6.98837C25.0796 6.98837 24.6396 6.59858 24.6396 6.1067Z" fill="#413E59"/>
<path d="M19.71 6.1067C19.71 5.61482 20.16 5.19719 20.69 5.19719C21.22 5.19719 21.64 5.61482 21.64 6.1067C21.64 6.59858 21.22 6.98837 20.69 6.98837C20.16 6.98837 19.71 6.59858 19.71 6.1067Z" fill="#413E59"/>
<path d="M14.7803 6.1067C14.7803 5.61482 15.2003 5.19719 15.7603 5.19719C16.2903 5.19719 16.7103 5.61482 16.7103 6.1067C16.7103 6.59858 16.2903 6.98837 15.7603 6.98837C15.2003 6.98837 14.7803 6.59858 14.7803 6.1067Z" fill="#413E59"/>
<path d="M9.8501 6.1067C9.8501 5.61482 10.2701 5.19719 10.8001 5.19719C11.3601 5.19719 11.7801 5.61482 11.7801 6.1067C11.7801 6.59858 11.3601 6.98837 10.8001 6.98837C10.2701 6.98837 9.8501 6.59858 9.8501 6.1067Z" fill="#413E59"/>
<path d="M4.92969 6.1067C4.92969 5.61482 5.34969 5.19719 5.87969 5.19719C6.43969 5.19719 6.85969 5.61482 6.85969 6.1067C6.85969 6.59858 6.43969 6.98837 5.87969 6.98837C5.34969 6.98837 4.92969 6.59858 4.92969 6.1067Z" fill="#413E59"/>
<path d="M30.5101 6.98841C30.2601 6.98841 30.0101 6.91417 29.8401 6.72855C29.6401 6.57078 29.5601 6.33876 29.5601 6.10674C29.5601 5.87472 29.6401 5.6427 29.8401 5.48493C30.1801 5.15083 30.8501 5.15083 31.2101 5.48493C31.3801 5.6427 31.4901 5.84688 31.4901 6.10674C31.4901 6.33876 31.3801 6.57078 31.1801 6.75639C30.9901 6.90489 30.7601 6.98841 30.5101 6.98841Z" fill="#413E59"/>
<path d="M8.34014 1.79119C8.09014 1.79119 7.87014 1.6891 7.67014 1.53133C7.47014 1.34571 7.39014 1.14154 7.39014 0.881676C7.39014 0.649658 7.47014 0.445481 7.64014 0.259866C8.01014 -0.0556789 8.65014 -0.0742404 9.01014 0.259866C9.21014 0.445481 9.32014 0.649658 9.32014 0.881676C9.32014 1.14154 9.21014 1.34571 9.01014 1.53133C8.85014 1.6891 8.59014 1.79119 8.34014 1.79119Z" fill="#CBA783"/>
<path d="M17.25 0.881671C17.25 0.389791 17.67 0 18.2 0C18.73 0 19.18 0.389791 19.18 0.881671C19.18 1.40139 18.73 1.79118 18.2 1.79118C17.67 1.79118 17.25 1.40139 17.25 0.881671Z" fill="#CBA783"/>
<path d="M12.3203 0.881671C12.3203 0.389791 12.7403 0 13.2703 0C13.8003 0 14.2503 0.389791 14.2503 0.881671C14.2503 1.40139 13.8003 1.79118 13.2703 1.79118C12.7403 1.79118 12.3203 1.40139 12.3203 0.881671Z" fill="#CBA783"/>
<path d="M23.1199 1.79119C22.8999 1.79119 22.6499 1.6891 22.4499 1.53133C22.2499 1.37356 22.1699 1.14154 22.1699 0.881676C22.1699 0.6775 22.2499 0.445481 22.4499 0.259866C22.7899 -0.0556789 23.4299 -0.0742404 23.7899 0.259866C23.9799 0.445481 24.0999 0.6775 24.0999 0.881676C24.0999 1.11369 23.9899 1.34571 23.8199 1.53133C23.6299 1.6891 23.3999 1.79119 23.1199 1.79119Z" fill="#CBA783"/>
<path d="M8.33965 12C8.08965 12 7.86965 11.8979 7.66965 11.7401C7.46965 11.5545 7.38965 11.3503 7.38965 11.0904C7.38965 10.8584 7.46965 10.6543 7.63965 10.4686C8.00965 10.1531 8.64965 10.1345 9.00965 10.4686C9.20965 10.6543 9.31965 10.8584 9.31965 11.0904C9.31965 11.3503 9.20965 11.5545 9.00965 11.7401C8.84965 11.8979 8.58965 12 8.33965 12Z" fill="#CBA783"/>
<path d="M17.2495 11.0905C17.2495 10.5986 17.6695 10.2088 18.1995 10.2088C18.7295 10.2088 19.1795 10.5986 19.1795 11.0905C19.1795 11.6102 18.7295 12 18.1995 12C17.6695 12 17.2495 11.6102 17.2495 11.0905Z" fill="#CBA783"/>
<path d="M12.3198 11.0905C12.3198 10.5986 12.7398 10.2088 13.2698 10.2088C13.7998 10.2088 14.2498 10.5986 14.2498 11.0905C14.2498 11.6102 13.7998 12 13.2698 12C12.7398 12 12.3198 11.6102 12.3198 11.0905Z" fill="#CBA783"/>
<path d="M23.1199 12C22.8999 12 22.6499 11.8979 22.4499 11.7401C22.2499 11.5823 22.1699 11.3503 22.1699 11.0904C22.1699 10.8863 22.2499 10.6543 22.4499 10.4686C22.7899 10.1531 23.4299 10.1345 23.7899 10.4686C23.9799 10.6543 24.0999 10.8863 24.0999 11.0904C24.0999 11.3225 23.9899 11.5545 23.8199 11.7401C23.6299 11.8979 23.3999 12 23.1199 12Z" fill="#CBA783"/>
</svg>
