<svg width="12" height="18" viewBox="0 0 12 18" fill="none" xmlns="http://www.w3.org/2000/svg">
<path d="M5.15809 12.3667C3.83544 12.2265 2.64307 11.9058 1.63104 11.1042C1.50078 11.004 1.37051 10.9138 1.26029 10.8036C0.80939 10.3728 0.76931 9.88177 1.12001 9.38077C1.42061 8.94991 1.93164 8.82967 2.45268 9.08017C2.55288 9.13027 2.65307 9.19039 2.74325 9.25051C4.64706 10.5531 7.25228 10.5932 9.15609 9.31063C9.34647 9.17035 9.54686 9.05011 9.77733 8.98999C10.2282 8.86975 10.6591 9.04009 10.8996 9.44089C11.1801 9.89179 11.1701 10.3427 10.8294 10.6934C10.2984 11.2345 9.66711 11.6253 8.9657 11.8958C8.30438 12.1563 7.57292 12.2866 6.85148 12.3667C6.9617 12.487 7.01179 12.5471 7.08193 12.6072C8.0639 13.5892 9.04586 14.5711 10.0278 15.5631C10.3585 15.9038 10.4286 16.3146 10.2483 16.7054C10.0479 17.1363 9.59697 17.4168 9.15609 17.3868C8.87553 17.3667 8.65508 17.2265 8.4647 17.0361C7.72322 16.2946 6.97172 15.5631 6.24025 14.8016C6.02983 14.5812 5.92963 14.6212 5.73925 14.8116C4.99777 15.5832 4.23625 16.3347 3.47473 17.0862C3.13405 17.4269 2.72322 17.487 2.33244 17.2866C1.9116 17.0862 1.64106 16.6553 1.6611 16.2245C1.67112 15.9339 1.82142 15.7134 2.02182 15.513C2.99377 14.5411 3.95569 13.5691 4.92763 12.5972C5.00779 12.5371 5.06791 12.4669 5.15809 12.3667Z" fill="#413E59"/>
<path d="M5.9695 8.99002C3.61479 8.98 1.68094 7.02609 1.69096 4.67138C1.70098 2.28661 3.63484 0.362761 6.01961 0.372781C8.40438 0.382801 10.3182 2.32669 10.3082 4.74152C10.2881 7.08621 8.34425 9.00004 5.9695 8.99002ZM8.10378 4.67138C8.10378 3.49903 7.16189 2.56717 5.99956 2.56717C4.8172 2.56717 3.87533 3.51907 3.88535 4.70144C3.89537 5.86376 4.83725 6.79563 6.00959 6.78561C7.18194 6.78561 8.1138 5.84372 8.10378 4.67138Z" fill="#413E59"/>
</svg>
