<svg width="77" height="52" viewBox="0 0 77 52" fill="none" xmlns="http://www.w3.org/2000/svg">
<path d="M75.3293 11.0898C75.4679 11.0898 75.5834 11.2053 75.5834 11.3439V22.1163C75.5834 22.2549 75.4679 22.3704 75.3293 22.3704C75.1907 22.3704 75.0752 22.2549 75.0752 22.1163V11.3439C75.0752 11.2053 75.1907 11.0898 75.3293 11.0898Z" fill="#CBA783"/>
<path d="M75.3292 8.24084C75.3754 8.24084 75.4216 8.26395 75.4601 8.29475C75.4986 8.33325 75.5217 8.37945 75.5217 8.43335C75.5217 8.47955 75.4986 8.52575 75.4678 8.56425C75.3908 8.63355 75.2753 8.64125 75.1983 8.57195C75.1598 8.52575 75.1367 8.48725 75.1367 8.43335C75.1367 8.38715 75.1598 8.33325 75.1983 8.29475C75.2291 8.26395 75.2753 8.24084 75.3292 8.24084Z" fill="#CBA783"/>
<path d="M75.5218 2.24266C75.5218 2.34276 75.4371 2.43516 75.3293 2.43516C75.2292 2.43516 75.1445 2.35046 75.1445 2.24266C75.1445 2.14256 75.2292 2.05786 75.3293 2.05786C75.4294 2.05786 75.5218 2.13486 75.5218 2.24266ZM75.5218 3.47466C75.5218 3.57476 75.4371 3.66716 75.3293 3.66716C75.2292 3.66716 75.1445 3.58246 75.1445 3.47466C75.1445 3.37456 75.2292 3.28986 75.3293 3.28986C75.4294 3.28986 75.5218 3.37456 75.5218 3.47466ZM75.5218 4.71436C75.5218 4.82216 75.4371 4.90686 75.3293 4.90686C75.2292 4.90686 75.1445 4.82216 75.1445 4.71436C75.1445 4.61426 75.2292 4.52956 75.3293 4.52956C75.4294 4.52956 75.5218 4.61426 75.5218 4.71436ZM75.5218 5.95406C75.5218 6.05416 75.4371 6.13886 75.3293 6.13886C75.2292 6.13886 75.1445 6.05416 75.1445 5.95406C75.1445 5.85396 75.2292 5.76156 75.3293 5.76156C75.4294 5.76926 75.5218 5.85396 75.5218 5.95406ZM75.5218 7.19376C75.5218 7.29386 75.4371 7.37856 75.3293 7.37856C75.2292 7.37856 75.1445 7.29386 75.1445 7.19376C75.1445 7.09366 75.2292 7.00126 75.3293 7.00126C75.4294 7.00126 75.5218 7.09366 75.5218 7.19376Z" fill="#CBA783"/>
<path d="M75.3293 0.810425C75.3755 0.810425 75.4294 0.833523 75.4602 0.872023C75.4987 0.902824 75.5141 0.956725 75.5141 1.00293C75.5141 1.04913 75.4987 1.09532 75.4679 1.13382C75.3986 1.21082 75.2754 1.21083 75.1984 1.14153C75.1599 1.09533 75.1445 1.05683 75.1445 1.00293C75.1445 0.956725 75.1599 0.902824 75.1907 0.872023C75.2292 0.833523 75.2754 0.810425 75.3293 0.810425Z" fill="#CBA783"/>
<path d="M73.843 6.38513C73.8969 6.38513 73.9431 6.40053 73.9816 6.43903C74.0124 6.46983 74.0355 6.52373 74.0355 6.56993C74.0355 6.61613 74.0124 6.67003 73.9816 6.70083C73.9046 6.77783 73.7891 6.77013 73.7121 6.70853C73.6736 6.66233 73.6582 6.62383 73.6582 6.56993C73.6582 6.52373 73.6736 6.46983 73.7121 6.43903C73.7429 6.40053 73.7891 6.38513 73.843 6.38513Z" fill="#CBA783"/>
<path d="M74.0277 4.09826C74.0277 4.19836 73.943 4.29076 73.8352 4.29076C73.7351 4.29076 73.6504 4.20606 73.6504 4.09826C73.6504 3.99816 73.7351 3.90576 73.8352 3.90576C73.9507 3.90576 74.0277 3.99816 74.0277 4.09826ZM74.0277 5.33795C74.0277 5.43805 73.943 5.52275 73.8352 5.52275C73.7351 5.52275 73.6504 5.43805 73.6504 5.33795C73.6504 5.23785 73.7351 5.14545 73.8352 5.14545C73.9507 5.14545 74.0277 5.23015 74.0277 5.33795Z" fill="#CBA783"/>
<path d="M73.8426 2.67383C73.8965 2.67383 73.9427 2.69693 73.9812 2.72773C74.012 2.75853 74.0351 2.81243 74.0351 2.86633C74.0351 2.91253 74.0197 2.95873 73.9889 2.99724C73.9042 3.07424 73.7887 3.06654 73.7194 2.99724C73.6809 2.95873 73.6655 2.91253 73.6655 2.86633C73.6655 2.81243 73.6886 2.76623 73.7194 2.72773C73.7425 2.69693 73.7887 2.67383 73.8426 2.67383Z" fill="#CBA783"/>
<path d="M76.815 6.38513C76.8612 6.38513 76.9074 6.40053 76.9459 6.43903C76.9844 6.47753 76.9998 6.52373 76.9998 6.56993C76.9998 6.61613 76.9844 6.66233 76.9459 6.70083C76.8612 6.78553 76.7457 6.77013 76.6765 6.70853C76.638 6.66233 76.6226 6.62383 76.6226 6.56993C76.6226 6.52373 76.6457 6.46983 76.6765 6.43903C76.715 6.40053 76.7688 6.38513 76.815 6.38513Z" fill="#CBA783"/>
<path d="M76.9998 4.09826C76.9998 4.19836 76.9151 4.29076 76.8073 4.29076C76.7073 4.29076 76.6226 4.20606 76.6226 4.09826C76.6226 3.99816 76.7073 3.90576 76.8073 3.90576C76.9151 3.90576 76.9998 3.99816 76.9998 4.09826ZM76.9998 5.33795C76.9998 5.43805 76.9151 5.52275 76.8073 5.52275C76.7073 5.52275 76.6226 5.43805 76.6226 5.33795C76.6226 5.23785 76.7073 5.14545 76.8073 5.14545C76.9151 5.14545 76.9998 5.23015 76.9998 5.33795Z" fill="#CBA783"/>
<path d="M76.815 2.67383C76.8612 2.67383 76.9074 2.69693 76.9459 2.72773C76.9844 2.76622 76.9998 2.81242 76.9998 2.86632C76.9998 2.91252 76.9844 2.95872 76.9459 2.99722C76.8766 3.06651 76.7534 3.06651 76.6841 3.00491C76.638 2.95872 76.6226 2.91252 76.6226 2.86632C76.6226 2.81242 76.6457 2.76622 76.6841 2.72773C76.7149 2.69693 76.7611 2.67383 76.815 2.67383Z" fill="#CBA783"/>
<path d="M36.3439 50.075H47.1163C47.2549 50.075 47.3704 50.1905 47.3704 50.329C47.3704 50.4676 47.2549 50.5831 47.1163 50.5831H36.3439C36.2053 50.5831 36.0898 50.4676 36.0898 50.329C36.0898 50.1905 36.2053 50.075 36.3439 50.075Z" fill="#CBA783"/>
<path d="M0.1848 50.1366H23.023C23.1231 50.1366 23.2078 50.2213 23.2078 50.3214C23.2078 50.4215 23.1231 50.5062 23.023 50.5062H0.1848C0.0846999 50.5139 0 50.4292 0 50.3291C0 50.2213 0.0846999 50.1366 0.1848 50.1366Z" fill="#CBA783"/>
<path d="M33.4337 50.1443C33.4799 50.1443 33.5261 50.1597 33.5646 50.1905C33.6031 50.229 33.6185 50.2752 33.6185 50.3291C33.6185 50.3753 33.6031 50.4215 33.5723 50.46C33.4953 50.537 33.3798 50.5293 33.3028 50.4677C33.2643 50.4215 33.2412 50.383 33.2412 50.3291C33.2412 50.2829 33.2643 50.229 33.2951 50.1982C33.3336 50.1597 33.3798 50.1443 33.4337 50.1443Z" fill="#CBA783"/>
<path d="M27.4354 50.3291C27.4354 50.4292 27.3507 50.5216 27.2429 50.5216C27.1428 50.5216 27.0581 50.4369 27.0581 50.3291C27.0581 50.229 27.1428 50.1443 27.2429 50.1443C27.343 50.1443 27.4354 50.2213 27.4354 50.3291ZM28.6674 50.3291C28.6674 50.4292 28.5827 50.5216 28.4749 50.5216C28.3748 50.5216 28.2901 50.4369 28.2901 50.3291C28.2901 50.229 28.3748 50.1443 28.4749 50.1443C28.5827 50.1443 28.6674 50.2213 28.6674 50.3291ZM29.9071 50.3291C29.9071 50.4292 29.8224 50.5216 29.7146 50.5216C29.6145 50.5216 29.5298 50.4369 29.5298 50.3291C29.5298 50.229 29.6145 50.1443 29.7146 50.1443C29.8224 50.1443 29.9071 50.2213 29.9071 50.3291ZM31.1468 50.3291C31.1468 50.4292 31.0621 50.5216 30.962 50.5216C30.8542 50.5216 30.7695 50.4369 30.7695 50.3291C30.7695 50.229 30.8542 50.1443 30.962 50.1443C31.0621 50.1443 31.1468 50.2213 31.1468 50.3291ZM32.3788 50.3291C32.3788 50.4292 32.2941 50.5216 32.194 50.5216C32.0862 50.5216 32.0015 50.4369 32.0015 50.3291C32.0015 50.229 32.0862 50.1443 32.194 50.1443C32.3018 50.1443 32.3788 50.2213 32.3788 50.3291Z" fill="#CBA783"/>
<path d="M26.003 50.1443C26.0492 50.1443 26.1031 50.1597 26.1339 50.1982C26.1724 50.229 26.1878 50.2829 26.1878 50.3291C26.1878 50.3753 26.1724 50.4292 26.1339 50.46C26.0646 50.5293 25.9337 50.5293 25.8644 50.46C25.8336 50.4292 25.8105 50.383 25.8105 50.3291C25.8105 50.2829 25.8336 50.229 25.8721 50.1905C25.9106 50.1597 25.9568 50.1443 26.003 50.1443Z" fill="#CBA783"/>
<path d="M31.5699 51.6228C31.6161 51.6228 31.6623 51.6459 31.7008 51.6767C31.7393 51.7152 31.7547 51.7614 31.7547 51.8153C31.7547 51.8615 31.7393 51.9077 31.7085 51.9462C31.6392 52.0078 31.516 52.0155 31.439 51.9462C31.4005 51.9077 31.3774 51.8615 31.3774 51.8153C31.3774 51.7614 31.4005 51.7152 31.439 51.6767C31.4775 51.6459 31.5237 51.6228 31.5699 51.6228Z" fill="#CBA783"/>
<path d="M29.2831 51.8153C29.2831 51.9154 29.1984 52.0001 29.0983 52.0001C28.9982 52.0001 28.9058 51.9154 28.9058 51.8153C28.9058 51.7075 28.9905 51.6228 29.0983 51.6228C29.2061 51.6228 29.2831 51.7075 29.2831 51.8153ZM30.5228 51.8153C30.5228 51.9154 30.4381 52.0001 30.338 52.0001C30.2379 52.0001 30.1455 51.9154 30.1455 51.8153C30.1455 51.7075 30.2302 51.6228 30.338 51.6228C30.4381 51.6228 30.5228 51.7075 30.5228 51.8153Z" fill="#CBA783"/>
<path d="M27.8663 51.6228C27.9125 51.6228 27.9587 51.6459 27.9972 51.6767C28.0357 51.7075 28.0511 51.7614 28.0511 51.8153C28.0511 51.8615 28.0357 51.9077 27.9972 51.9462C27.9356 52.0078 27.8047 52.0155 27.7354 51.9462C27.6969 51.9077 27.6738 51.8615 27.6738 51.8153C27.6738 51.7691 27.6969 51.7152 27.7277 51.6767C27.7662 51.6459 27.8047 51.6228 27.8663 51.6228Z" fill="#CBA783"/>
<path d="M31.5701 48.6505C31.6163 48.6505 31.6702 48.6736 31.7087 48.7044C31.7395 48.7352 31.7549 48.7891 31.7549 48.843C31.7549 48.8892 31.7395 48.9431 31.701 48.9739C31.6394 49.0355 31.5085 49.0432 31.4315 48.9739C31.4007 48.9431 31.3853 48.8892 31.3853 48.843C31.3853 48.7891 31.4007 48.7429 31.4392 48.7044C31.4777 48.6736 31.5239 48.6505 31.5701 48.6505Z" fill="#CBA783"/>
<path d="M29.2831 48.843C29.2831 48.9431 29.1984 49.0278 29.0983 49.0278C28.9982 49.0278 28.9058 48.9431 28.9058 48.843C28.9058 48.7352 28.9905 48.6505 29.0983 48.6505C29.2061 48.6505 29.2831 48.7352 29.2831 48.843ZM30.5228 48.843C30.5228 48.9431 30.4381 49.0278 30.338 49.0278C30.2379 49.0278 30.1455 48.9431 30.1455 48.843C30.1455 48.7352 30.2302 48.6505 30.338 48.6505C30.4381 48.6505 30.5228 48.7352 30.5228 48.843Z" fill="#CBA783"/>
<path d="M27.8663 48.6505C27.9125 48.6505 27.9587 48.6659 27.9972 48.7044C28.0357 48.7352 28.0511 48.7891 28.0511 48.843C28.0511 48.8892 28.0357 48.9354 27.9972 48.9739C27.9202 49.0432 27.8047 49.0432 27.7354 48.9739C27.6969 48.9354 27.6738 48.8892 27.6738 48.843C27.6738 48.7891 27.6969 48.7429 27.7354 48.7044C27.7662 48.6736 27.8047 48.6505 27.8663 48.6505Z" fill="#CBA783"/>
<path d="M75.3292 20.2837C75.3754 20.2837 75.4216 20.3068 75.4601 20.3376C75.4986 20.3684 75.5217 20.4223 75.5217 20.4762C75.5217 20.5224 75.4986 20.5763 75.4601 20.6071C75.3985 20.6764 75.2599 20.6764 75.1906 20.5994C75.1598 20.5686 75.1367 20.5224 75.1367 20.4762C75.1367 20.4223 75.1598 20.3761 75.1983 20.3376C75.2368 20.3068 75.2753 20.2837 75.3292 20.2837Z" fill="#CBA783"/>
<path d="M74.2501 20.4909C74.2578 20.591 74.1731 20.6834 74.073 20.6834C73.9729 20.6911 73.8805 20.6064 73.8805 20.5063C73.8728 20.4062 73.9575 20.3138 74.0576 20.3138H74.0653C74.1577 20.3061 74.2424 20.3908 74.2501 20.4909ZM72.9873 20.5602C72.995 20.6603 72.918 20.7527 72.8102 20.7604C72.7101 20.7681 72.6177 20.6988 72.61 20.591C72.6023 20.4909 72.6793 20.3985 72.7871 20.3908C72.7948 20.3908 72.7948 20.3908 72.7948 20.3908C72.8872 20.3908 72.9719 20.4601 72.9873 20.5602ZM71.7168 20.6834C71.7322 20.7835 71.6629 20.8759 71.5551 20.899C71.5551 20.899 71.5551 20.899 71.5474 20.899C71.4473 20.9067 71.3549 20.8374 71.3395 20.7373C71.3318 20.6372 71.4011 20.5448 71.5012 20.5217C71.5089 20.5217 71.5166 20.5217 71.5243 20.5217C71.6244 20.5217 71.7091 20.591 71.7168 20.6834ZM70.4694 20.8605C70.4925 20.9606 70.4232 21.0607 70.3154 21.0761C70.2153 21.0915 70.1229 21.0222 70.0998 20.9144C70.0844 20.8143 70.1537 20.7142 70.2538 20.6988H70.2615C70.2692 20.6911 70.2846 20.6911 70.2923 20.6911C70.377 20.7065 70.454 20.7681 70.4694 20.8605ZM69.222 21.0915C69.2451 21.1916 69.1758 21.2917 69.0757 21.3148C68.9756 21.3379 68.8755 21.2686 68.8524 21.1762C68.8293 21.0761 68.8986 20.976 68.9987 20.9529V20.9452C69.0064 20.9452 69.0295 20.9452 69.0372 20.9452C69.1296 20.9452 69.1989 21.0068 69.222 21.0915ZM67.99 21.3764C68.0208 21.4765 67.9592 21.5843 67.8591 21.6074C67.759 21.6382 67.6512 21.5766 67.6281 21.4765C67.605 21.3764 67.6666 21.2686 67.7667 21.2455C67.7821 21.2378 67.7975 21.2378 67.8129 21.2378C67.8899 21.2378 67.9669 21.2917 67.99 21.3764ZM66.7657 21.7152C66.7965 21.8153 66.7349 21.9231 66.6425 21.9462C66.5424 21.977 66.4423 21.9154 66.4115 21.823C66.3807 21.7229 66.4423 21.6228 66.5347 21.592C66.5501 21.5843 66.5732 21.5843 66.5886 21.5843C66.6656 21.5843 66.7426 21.6305 66.7657 21.7152ZM65.5568 22.1079C65.5953 22.208 65.5414 22.3081 65.4413 22.3466C65.3412 22.3774 65.2334 22.3312 65.2026 22.2311C65.1718 22.131 65.218 22.0232 65.3181 21.9847V21.9924C65.3412 21.9847 65.3643 21.9847 65.3797 21.9847C65.4567 21.9847 65.526 22.0309 65.5568 22.1079ZM64.371 22.5468C64.4095 22.6392 64.3633 22.747 64.2632 22.7855C64.1708 22.824 64.063 22.7778 64.0245 22.6854C63.9783 22.5853 64.0322 22.4852 64.1246 22.439C64.1477 22.4313 64.1708 22.4313 64.1939 22.4313C64.2632 22.4313 64.3325 22.4698 64.371 22.5468ZM63.2006 23.0396C63.2468 23.132 63.2006 23.2398 63.1082 23.286C63.0081 23.3322 62.9003 23.2937 62.8541 23.1936C62.8079 23.1012 62.8541 22.9934 62.9465 22.9472V22.9395C62.9773 22.9318 63.0004 22.9241 63.0235 22.9241C63.0928 22.9241 63.1621 22.9703 63.2006 23.0396ZM62.0456 23.5786C62.0918 23.671 62.0533 23.7865 61.9609 23.8327C61.8685 23.8789 61.753 23.8404 61.7068 23.748C61.6606 23.6556 61.6991 23.5401 61.7915 23.4939C61.8223 23.4785 61.8454 23.4708 61.8762 23.4708C61.9532 23.4708 62.0148 23.5093 62.0456 23.5786ZM60.9214 24.1638C60.9676 24.2562 60.9368 24.3717 60.8521 24.4179C60.7597 24.4641 60.6442 24.4333 60.598 24.3486C60.5518 24.2562 60.5749 24.1407 60.6673 24.0945C60.6981 24.0791 60.7289 24.0637 60.7597 24.0637C60.829 24.0714 60.8906 24.1099 60.9214 24.1638ZM59.828 24.8029C59.8819 24.8876 59.8588 25.0031 59.7664 25.057C59.6817 25.1109 59.5662 25.0878 59.5123 24.9954C59.4584 24.9107 59.4815 24.7952 59.5739 24.7413C59.6047 24.7182 59.6355 24.7105 59.674 24.7105C59.7356 24.7105 59.7895 24.7413 59.828 24.8029ZM58.7577 25.4882C58.8193 25.5729 58.7962 25.6884 58.7115 25.75C58.6268 25.8116 58.5113 25.7808 58.4497 25.7038C58.3958 25.6191 58.4189 25.5036 58.4959 25.442C58.5267 25.4189 58.5652 25.4112 58.6037 25.4112C58.6653 25.4035 58.7269 25.4266 58.7577 25.4882ZM57.7182 26.212C57.7798 26.2967 57.7644 26.4122 57.672 26.4815C57.5873 26.5431 57.4795 26.5277 57.4102 26.4353C57.3486 26.3506 57.364 26.2351 57.4487 26.1735C57.4872 26.1504 57.5257 26.135 57.5642 26.135C57.6258 26.135 57.6797 26.1581 57.7182 26.212ZM56.7095 26.982C56.7711 27.059 56.7634 27.1745 56.6787 27.2438C56.594 27.3054 56.4785 27.2977 56.4092 27.213C56.3476 27.1283 56.363 27.0128 56.44 26.9435C56.4785 26.9127 56.517 26.905 56.5632 26.905C56.6171 26.9127 56.6787 26.9358 56.7095 26.982ZM55.7393 27.7982C55.8086 27.8752 55.8009 27.9907 55.7239 28.06C55.6469 28.1293 55.5314 28.1293 55.4544 28.0446C55.3928 27.9676 55.3928 27.8521 55.4775 27.7751C55.5083 27.7443 55.5545 27.7289 55.6007 27.7289C55.6469 27.7289 55.7008 27.752 55.7393 27.7982ZM54.7999 28.6452C54.8692 28.7222 54.8692 28.8377 54.7922 28.9147C54.7152 28.984 54.5997 28.984 54.5227 28.907C54.4534 28.83 54.4611 28.7145 54.5304 28.6375C54.5689 28.599 54.6151 28.5836 54.6613 28.5836C54.7152 28.5836 54.7614 28.6067 54.7999 28.6452ZM53.899 29.5307C53.9683 29.6 53.976 29.7232 53.9067 29.8002C53.8297 29.8772 53.7142 29.8772 53.6372 29.8079C53.5602 29.7386 53.5525 29.6154 53.6295 29.5384C53.6603 29.4999 53.7142 29.4845 53.7681 29.4845C53.8143 29.4845 53.8605 29.4999 53.899 29.5307ZM53.0366 30.4624C53.1213 30.5317 53.1213 30.6549 53.052 30.7319C52.9904 30.8089 52.8672 30.8166 52.7902 30.7473C52.7132 30.678 52.7055 30.5625 52.7748 30.4855V30.4778C52.8056 30.4393 52.8595 30.4162 52.9134 30.4162C52.9596 30.4162 53.0058 30.4316 53.0366 30.4624ZM52.2127 31.4249C52.2974 31.4865 52.3051 31.6097 52.2435 31.6944C52.1819 31.7714 52.0664 31.7868 51.9817 31.7252C51.897 31.6559 51.8893 31.5404 51.9509 31.4557C51.9894 31.4095 52.0433 31.3864 52.0972 31.3864C52.1357 31.3787 52.1819 31.3941 52.2127 31.4249ZM51.435 32.4182C51.5197 32.4798 51.5351 32.5954 51.4735 32.6801C51.4119 32.7648 51.2964 32.7801 51.2117 32.7185C51.127 32.6569 51.1116 32.5414 51.1732 32.4567C51.204 32.4106 51.2656 32.3797 51.3195 32.3797C51.3657 32.3797 51.4042 32.3951 51.435 32.4182ZM50.6958 33.4501C50.7805 33.504 50.8036 33.6271 50.7497 33.7118C50.6881 33.7965 50.5726 33.8119 50.4879 33.758C50.4032 33.6964 50.3801 33.5809 50.434 33.4963H50.4417C50.4725 33.4424 50.5341 33.4115 50.5957 33.4115C50.6265 33.4192 50.665 33.427 50.6958 33.4501ZM50.0028 34.5049C50.0875 34.5588 50.1183 34.6743 50.0644 34.7591C50.0105 34.8514 49.895 34.8823 49.8103 34.8207C49.7256 34.7668 49.6948 34.6435 49.7487 34.5588C49.7872 34.4972 49.8488 34.4741 49.9104 34.4741C49.9335 34.4818 49.9643 34.4895 50.0028 34.5049ZM49.3483 35.5907C49.4407 35.6369 49.4715 35.7523 49.4176 35.8447C49.3714 35.9371 49.2559 35.968 49.1635 35.9141C49.0788 35.8679 49.0403 35.7523 49.0942 35.6599C49.125 35.5983 49.1943 35.5676 49.2559 35.5676C49.2944 35.5676 49.3252 35.5753 49.3483 35.5907ZM48.7554 36.7071C48.8478 36.7533 48.8786 36.8689 48.8401 36.9613C48.7939 37.0537 48.6784 37.0922 48.586 37.046C48.4936 36.9998 48.4628 36.8843 48.5013 36.7919C48.5398 36.7303 48.6014 36.6918 48.6707 36.6918C48.6938 36.6841 48.7246 36.6917 48.7554 36.7071ZM48.1933 37.8468C48.2857 37.893 48.3319 38.0007 48.2857 38.1008C48.2857 38.1008 48.2857 38.1009 48.2857 38.0932C48.2395 38.1933 48.1317 38.2318 48.0316 38.1933C47.9392 38.1471 47.9007 38.0392 47.9392 37.9391C47.97 37.8699 48.0393 37.8314 48.1163 37.8314C48.1471 37.8237 48.1702 37.8314 48.1933 37.8468ZM47.6928 39.0018C47.7852 39.0326 47.8314 39.1481 47.7929 39.2405C47.7544 39.3406 47.6389 39.3868 47.5465 39.3483C47.4464 39.3098 47.4079 39.1943 47.4387 39.1019C47.4695 39.0249 47.5388 38.9786 47.6158 38.9786C47.6466 38.9863 47.6697 38.9941 47.6928 39.0018ZM47.2385 40.1799C47.3386 40.2107 47.3848 40.3185 47.354 40.4186C47.3232 40.5187 47.2154 40.5649 47.1153 40.5341C47.0152 40.5033 46.969 40.3955 46.9998 40.2954C47.0306 40.2184 47.0999 40.1722 47.1769 40.1722C47.1923 40.1722 47.2154 40.1722 47.2385 40.1799ZM46.8381 41.3811C46.9382 41.4119 46.9921 41.5197 46.9613 41.6121C46.9305 41.7122 46.8227 41.7738 46.7226 41.7353C46.6225 41.7045 46.5686 41.5967 46.5994 41.5043C46.6225 41.4196 46.6995 41.3734 46.7765 41.3734C46.7996 41.3734 46.815 41.3734 46.8381 41.3811ZM46.4839 42.5977C46.584 42.6285 46.6456 42.7285 46.6225 42.8286C46.5917 42.9288 46.4916 42.9904 46.3915 42.9596C46.2914 42.9288 46.2298 42.8364 46.2606 42.7286C46.2837 42.6439 46.3607 42.59 46.4377 42.59C46.4454 42.59 46.4608 42.5977 46.4839 42.5977ZM46.1836 43.8297C46.2837 43.8528 46.3453 43.9529 46.3222 44.053C46.2991 44.1531 46.199 44.2224 46.0989 44.1993C45.9988 44.1762 45.9372 44.0761 45.9603 43.976C45.9757 43.8913 46.0527 43.8297 46.1374 43.8297C46.1528 43.8297 46.1605 43.8297 46.1836 43.8297ZM45.9295 45.0694C46.0296 45.0925 46.1066 45.1849 46.0835 45.285C46.0681 45.3851 45.968 45.4621 45.8679 45.439C45.7678 45.4236 45.6908 45.3235 45.7062 45.2234C45.7216 45.1387 45.8063 45.0694 45.891 45.0694C45.9064 45.0694 45.9218 45.0694 45.9295 45.0694ZM45.737 46.3245C45.8371 46.3322 45.9141 46.4323 45.8987 46.5401C45.891 46.6402 45.7909 46.7172 45.6908 46.7018C45.5907 46.6941 45.5137 46.6017 45.5291 46.4939C45.5368 46.3938 45.6215 46.3322 45.7139 46.3322C45.7139 46.3245 45.7293 46.3245 45.737 46.3245ZM45.5984 47.5796C45.6985 47.5873 45.7755 47.6797 45.7678 47.7798C45.7601 47.8799 45.6677 47.9569 45.5599 47.9569C45.4598 47.9492 45.3828 47.8568 45.3905 47.749C45.3982 47.6489 45.4829 47.5796 45.5753 47.5796C45.583 47.5796 45.583 47.5796 45.5984 47.5796ZM45.506 48.8424C45.6061 48.8501 45.6908 48.9348 45.6831 49.0349C45.6754 49.135 45.5907 49.2197 45.4906 49.212C45.3905 49.2043 45.3058 49.1196 45.3135 49.0118C45.3135 48.9194 45.3982 48.8424 45.506 48.8424Z" fill="#CBA783"/>
<path d="M45.4762 50.1443C45.5224 50.1443 45.5686 50.1597 45.6071 50.1905C45.6379 50.229 45.661 50.2752 45.661 50.3291C45.661 50.3753 45.6456 50.4215 45.6071 50.46C45.5378 50.5293 45.4146 50.5293 45.3376 50.4677C45.3068 50.4215 45.2837 50.383 45.2837 50.3291C45.2837 50.2829 45.3068 50.229 45.3376 50.1982C45.3761 50.1597 45.4223 50.1443 45.4762 50.1443Z" fill="#CBA783"/>
<path d="M47.4861 45.8708C47.5323 45.8708 47.5862 45.8862 47.617 45.917C47.6555 45.9555 47.6786 46.0017 47.6786 46.0556C47.6786 46.1019 47.6555 46.1557 47.6247 46.1865C47.5554 46.2636 47.4322 46.2636 47.3552 46.1943C47.3167 46.1558 47.3013 46.1096 47.3013 46.0556C47.3013 46.0094 47.3167 45.9556 47.3552 45.9247C47.3937 45.8862 47.4399 45.8708 47.4861 45.8708Z" fill="#CBA783"/>
<path d="M71.7101 23.6871C71.7255 23.7872 71.6562 23.8873 71.5484 23.9027C71.4483 23.9181 71.3482 23.8411 71.3328 23.741C71.3174 23.6409 71.3867 23.5485 71.4945 23.5331C71.5022 23.5331 71.5176 23.5254 71.5253 23.5254C71.6177 23.5254 71.6947 23.5947 71.7101 23.6871ZM71.841 24.9345C71.8487 25.0346 71.7794 25.127 71.6639 25.127C71.5638 25.1347 71.4714 25.0654 71.4714 24.9576C71.4714 24.9576 71.4714 24.9576 71.4637 24.9576C71.456 24.8575 71.533 24.7651 71.6408 24.7574C71.6485 24.7574 71.6485 24.7574 71.6562 24.7574C71.7563 24.7574 71.8333 24.8344 71.841 24.9345ZM71.8949 26.1819C71.8949 26.282 71.8102 26.3744 71.7101 26.3744C71.61 26.3744 71.5253 26.2897 71.5176 26.1896C71.5176 26.0895 71.6023 25.9971 71.7024 25.9971C71.7024 25.9971 71.7024 25.9971 71.7101 25.9971C71.8102 25.9971 71.8949 26.0818 71.8949 26.1819ZM71.6947 27.2368C71.7948 27.2445 71.8795 27.3292 71.8718 27.437C71.8641 27.5371 71.7794 27.6218 71.6716 27.6141C71.5715 27.6064 71.4868 27.514 71.4945 27.4139C71.5022 27.3138 71.5869 27.2368 71.6947 27.2368ZM71.6023 28.4765C71.7101 28.4842 71.7794 28.5766 71.7717 28.6844C71.764 28.7845 71.6716 28.8615 71.5638 28.8461C71.4637 28.8384 71.3867 28.746 71.4021 28.6382C71.4098 28.5458 71.4868 28.4688 71.5869 28.4688C71.5946 28.4688 71.6023 28.4765 71.6023 28.4765ZM71.4483 29.7008C71.5484 29.7162 71.6177 29.8163 71.6023 29.9164C71.5869 30.0165 71.4868 30.0858 71.3867 30.0704C71.2866 30.055 71.2173 29.9549 71.2327 29.8548C71.2481 29.7624 71.3328 29.7008 71.4175 29.7008C71.4252 29.7008 71.4329 29.7008 71.4483 29.7008ZM71.2096 30.9174C71.3097 30.9482 71.3713 31.0406 71.3482 31.1484C71.3174 31.2485 71.225 31.3101 71.1172 31.287C71.0171 31.2639 70.9555 31.1638 70.9786 31.0637C70.994 30.979 71.071 30.9174 71.1557 30.9174C71.1788 30.9097 71.1942 30.9174 71.2096 30.9174ZM70.8939 32.1186C70.994 32.1494 71.0479 32.2572 71.0171 32.3573C70.9863 32.4574 70.8785 32.5113 70.7861 32.4805C70.686 32.4497 70.6244 32.3496 70.6629 32.2495C70.686 32.1725 70.763 32.1186 70.84 32.1186C70.8631 32.1109 70.8785 32.1109 70.8939 32.1186ZM70.5089 33.2967C70.6013 33.3275 70.6552 33.4353 70.6167 33.5354C70.5782 33.6355 70.4704 33.6817 70.3703 33.6432C70.2779 33.6124 70.2317 33.5046 70.2625 33.4045C70.2933 33.3275 70.3626 33.2813 70.4396 33.2813C70.4704 33.289 70.4858 33.289 70.5089 33.2967ZM70.0546 34.4517C70.147 34.4979 70.1932 34.6057 70.147 34.6981C70.1008 34.7982 69.993 34.8367 69.8929 34.7982C69.8005 34.752 69.7543 34.6365 69.8005 34.5441C69.8313 34.4748 69.9006 34.4363 69.9699 34.4363C70.0007 34.4363 70.0238 34.4363 70.0546 34.4517ZM69.5156 35.5682C69.608 35.6144 69.6465 35.7299 69.6003 35.8223C69.5541 35.9147 69.4386 35.9532 69.3462 35.907C69.2538 35.8608 69.223 35.7453 69.2692 35.6529C69.3 35.5913 69.3693 35.5528 69.4309 35.5528C69.4617 35.5451 69.4925 35.5528 69.5156 35.5682ZM68.9227 36.6539C69.0151 36.7078 69.0459 36.8233 68.9843 36.908C68.9304 37.0004 68.8149 37.0312 68.7302 36.9696C68.6378 36.9157 68.607 36.8002 68.6686 36.7155C68.7071 36.6539 68.7687 36.6231 68.8303 36.6231C68.8611 36.6231 68.8919 36.6308 68.9227 36.6539ZM68.2605 37.6934C68.3452 37.755 68.3606 37.8705 68.3067 37.9552C68.2451 38.0399 68.1296 38.063 68.0449 38.0014C67.9602 37.9398 67.9448 37.8243 67.9987 37.7396C68.0295 37.6857 68.0911 37.6549 68.1527 37.6549C68.1912 37.6626 68.2297 37.678 68.2605 37.6934ZM67.529 38.7021C67.6137 38.7637 67.6291 38.8869 67.5598 38.9716V38.9639C67.4982 39.0486 67.3827 39.064 67.298 38.9947C67.2133 38.9331 67.1979 38.8176 67.2672 38.7329C67.3057 38.6867 67.3596 38.6636 67.4135 38.6636C67.452 38.6636 67.4982 38.6713 67.529 38.7021ZM66.7436 39.6492C66.8206 39.7185 66.8283 39.8417 66.7513 39.9187C66.682 39.9957 66.5665 40.0034 66.4895 39.9341C66.4048 39.8725 66.4048 39.7493 66.4741 39.6646C66.5126 39.6261 66.5588 39.603 66.6127 39.603C66.6666 39.6107 66.7051 39.6261 66.7436 39.6492ZM65.8966 40.5655C65.9736 40.6425 65.9736 40.758 65.8966 40.835C65.8196 40.9043 65.7041 40.9043 65.6271 40.835C65.5578 40.758 65.5578 40.6348 65.6271 40.5655C65.6656 40.527 65.7118 40.5116 65.7657 40.5116C65.8119 40.5116 65.8658 40.527 65.8966 40.5655ZM64.9957 41.4202C65.065 41.4972 65.0573 41.6127 64.9803 41.682C64.9033 41.7513 64.7801 41.7436 64.7108 41.6666C64.6415 41.5896 64.6492 41.4741 64.7339 41.3971C64.7647 41.3663 64.8109 41.3509 64.8571 41.3509C64.911 41.3509 64.9572 41.374 64.9957 41.4202ZM64.0486 42.2133C64.1102 42.298 64.0948 42.4135 64.0101 42.4751C63.9254 42.5367 63.8176 42.5213 63.7483 42.4443C63.6867 42.3596 63.7021 42.2441 63.7791 42.1825C63.8099 42.1517 63.8561 42.1363 63.8946 42.1363C63.9562 42.1363 64.0101 42.1671 64.0486 42.2133ZM63.0476 42.9525C63.1015 43.0372 63.0784 43.1527 62.9937 43.2143C62.909 43.2682 62.7935 43.2451 62.7319 43.1681C62.678 43.0834 62.7011 42.9679 62.7858 42.9063C62.8166 42.8832 62.8474 42.8755 62.8859 42.8755C62.9552 42.8678 63.0091 42.8909 63.0476 42.9525ZM62.0081 43.6224C62.062 43.7071 62.0389 43.8226 61.9465 43.8765C61.8618 43.9304 61.7463 43.8996 61.6924 43.8149C61.6385 43.7225 61.6693 43.607 61.754 43.5531C61.7848 43.5377 61.8156 43.53 61.8464 43.53C61.908 43.53 61.9696 43.5685 62.0081 43.6224ZM60.9224 44.2307C60.9686 44.3231 60.9301 44.4386 60.8377 44.4848V44.4771C60.7453 44.5233 60.6298 44.4925 60.5836 44.4001C60.5374 44.3077 60.5682 44.1922 60.6606 44.146C60.6914 44.1383 60.7222 44.1229 60.7453 44.1229C60.83 44.1229 60.8916 44.1614 60.9224 44.2307ZM59.8059 44.7697C59.8444 44.8698 59.7982 44.9776 59.7058 45.0238C59.6057 45.0623 59.4979 45.0161 59.4517 44.9237C59.4132 44.8236 59.4594 44.7158 59.5518 44.6696C59.5826 44.6619 59.6057 44.6542 59.6288 44.6542C59.7058 44.6542 59.7751 44.7004 59.8059 44.7697ZM58.6586 45.2394C58.6894 45.3395 58.6432 45.4473 58.5431 45.4858C58.443 45.5166 58.3352 45.4704 58.3044 45.3703C58.2659 45.2702 58.3198 45.1624 58.4199 45.1316C58.4353 45.1239 58.4584 45.1239 58.4815 45.1239C58.5585 45.1162 58.6355 45.1624 58.6586 45.2394ZM57.4805 45.6321C57.5113 45.7322 57.4497 45.84 57.3573 45.8631C57.2572 45.8939 57.1494 45.8323 57.1263 45.7322C57.0955 45.6321 57.1571 45.532 57.2495 45.5012C57.2726 45.4935 57.288 45.4935 57.3034 45.4935C57.3804 45.5012 57.4574 45.5551 57.4805 45.6321ZM56.287 45.9555C56.3178 46.0556 56.2485 46.1557 56.1484 46.1865V46.1788C56.0483 46.2096 55.9405 46.1403 55.9174 46.0402C55.8943 45.9401 55.9636 45.84 56.056 45.8092C56.0714 45.8092 56.0868 45.8015 56.1022 45.8015C56.1946 45.8092 56.2639 45.8708 56.287 45.9555ZM55.0704 46.2096C55.0858 46.3097 55.0165 46.4098 54.9087 46.4252C54.8086 46.4406 54.7085 46.379 54.6931 46.2712C54.6777 46.1711 54.747 46.071 54.8548 46.0556C54.8625 46.0556 54.8702 46.0556 54.8856 46.0556C54.978 46.0479 55.055 46.1172 55.0704 46.2096ZM48.741 46.0864C48.8411 46.1018 48.9181 46.2019 48.9027 46.302C48.895 46.4098 48.7949 46.4791 48.6871 46.4637C48.587 46.4483 48.51 46.3482 48.5254 46.2481C48.5408 46.1557 48.6178 46.0864 48.7102 46.0864C48.7179 46.0864 48.7333 46.0864 48.741 46.0864ZM53.8461 46.379C53.8538 46.4791 53.7845 46.5715 53.6767 46.5869C53.5766 46.5946 53.4842 46.5253 53.4688 46.4175C53.4611 46.3174 53.5381 46.2173 53.6459 46.2096C53.6536 46.2096 53.6536 46.2096 53.6613 46.2096C53.7537 46.2096 53.8384 46.2789 53.8461 46.379ZM49.9576 46.2327C50.0577 46.2404 50.1347 46.3328 50.127 46.4329C50.1193 46.533 50.0269 46.61 49.9268 46.6023C49.8267 46.5946 49.7497 46.5022 49.7574 46.4021C49.7651 46.302 49.8421 46.2327 49.9422 46.2327C49.9499 46.2327 49.9499 46.2327 49.9576 46.2327ZM52.6064 46.4714C52.6141 46.5715 52.5294 46.6639 52.4293 46.6639C52.3292 46.6716 52.2368 46.5869 52.2291 46.4868C52.2291 46.3867 52.3138 46.2943 52.4139 46.2943L52.4216 46.2866C52.5217 46.2866 52.6064 46.3713 52.6064 46.4714ZM51.1819 46.302C51.282 46.302 51.3667 46.3944 51.3667 46.4945C51.359 46.6023 51.282 46.6793 51.1742 46.6793H51.1819C51.0818 46.6793 50.9894 46.5946 50.9971 46.4868C50.9894 46.379 51.0818 46.302 51.1819 46.302Z" fill="#CBA783"/>
<path d="M71.3098 22.2858C71.3637 22.2858 71.4099 22.3012 71.4484 22.332C71.4792 22.3705 71.5023 22.4167 71.5023 22.4706C71.5023 22.5168 71.4792 22.5707 71.4484 22.6015C71.3714 22.6708 71.2559 22.6708 71.1789 22.6015C71.1404 22.5707 71.125 22.5168 71.125 22.4706C71.125 22.4244 71.1404 22.3705 71.1789 22.332C71.2174 22.3012 71.2636 22.2858 71.3098 22.2858Z" fill="#CBA783"/>
<path d="M57.3501 43.9304C57.435 43.9304 57.5122 43.9766 57.5354 44.0613C57.5663 44.1614 57.52 44.2615 57.4273 44.2923L57.3655 44.1152L57.4273 44.2923L57.3501 44.1229L57.3037 43.9381C57.3114 43.9304 57.3269 43.9304 57.3501 43.9304Z" fill="#CBA783"/>
<path d="M69.8161 30.1627C69.8315 30.1627 69.8392 30.1627 69.8546 30.1704C69.9547 30.1935 70.024 30.2859 70.0009 30.386C70.0009 30.386 70.0009 30.3937 70.0009 30.4014C69.9778 30.5015 69.8777 30.5708 69.7699 30.5477C69.6698 30.5246 69.6082 30.4322 69.6313 30.3244C69.6467 30.232 69.7237 30.1627 69.8161 30.1627Z" fill="#CBA783"/>
<path d="M65.2807 38.7791L65.5733 39.0178C65.504 39.0948 65.3808 39.1102 65.3038 39.0409C65.2191 38.9716 65.2114 38.8638 65.2807 38.7791L65.4193 38.91L65.2807 38.7791Z" fill="#CBA783"/>
<path d="M69.8474 22.4637C69.9629 22.4637 70.0707 22.5484 70.0938 22.6639C70.3479 23.9036 70.4711 25.1741 70.4711 26.4446C70.4711 27.7613 70.3325 29.0934 70.0553 30.3947C69.3623 33.6287 67.83 36.6163 65.6124 39.0649C63.3871 41.5212 60.5612 43.3461 57.435 44.3548C54.2857 45.3712 50.9285 45.5329 47.7022 44.8476C47.5636 44.8168 47.4789 44.6859 47.5097 44.5473C47.5405 44.4164 47.6637 44.324 47.81 44.3548C50.9516 45.0247 54.2318 44.863 57.2656 43.8851C60.3302 42.8995 63.0714 41.1208 65.2274 38.7492C67.3911 36.3545 68.8849 33.4439 69.5548 30.3177C69.832 29.0318 69.9629 27.7382 69.9629 26.4523C69.9629 25.2126 69.8397 23.9806 69.5933 22.7717C69.5625 22.6331 69.6549 22.5022 69.7858 22.4791C69.8166 22.4637 69.832 22.4637 69.8474 22.4637Z" fill="#CBA783"/>
<path d="M62.4243 25.1346C62.5167 25.1346 62.6014 25.2039 62.6091 25.304C62.6476 25.6813 62.6707 26.0663 62.6707 26.4513C62.6707 26.5514 62.586 26.6361 62.4859 26.6361C62.3858 26.6361 62.3011 26.5514 62.3011 26.4513C62.3011 26.0817 62.2857 25.7121 62.2472 25.3425C62.2395 25.2424 62.3088 25.15 62.4166 25.1346H62.4243Z" fill="#CBA783"/>
<path d="M62.4856 26.2589C62.5857 26.2589 62.6704 26.3436 62.6704 26.4437C62.6704 32.519 57.727 37.4547 51.6594 37.4547C51.5593 37.4547 51.4746 37.37 51.4746 37.2699C51.4746 37.1698 51.5593 37.0851 51.6594 37.0851C57.5268 37.0851 62.2931 32.3111 62.2931 26.4514C62.3008 26.3436 62.3778 26.2589 62.4856 26.2589Z" fill="#CBA783"/>
<path d="M50.4276 37.0082C50.4353 37.0082 50.443 37.0082 50.4507 37.0082C50.8588 37.0544 51.2669 37.0775 51.6596 37.0775C51.7597 37.0775 51.8444 37.1622 51.8444 37.2623C51.8444 37.3624 51.7597 37.4471 51.6596 37.4471C51.2515 37.4471 50.8357 37.424 50.4122 37.3778C50.3121 37.3624 50.2351 37.27 50.2505 37.1699C50.2582 37.0775 50.3352 37.0082 50.4276 37.0082Z" fill="#CBA783"/>
<path d="M62.8476 24.95C62.8553 24.95 62.8707 24.95 62.8784 24.95L69.5851 26.4361L62.6166 27.9838C62.5396 27.9992 62.4549 27.953 62.4395 27.8683C62.4241 27.7836 62.4703 27.7066 62.555 27.6912L68.1991 26.4361L62.8168 25.2426C62.7321 25.2272 62.6859 25.1424 62.7013 25.0654C62.7167 25.0038 62.7783 24.95 62.8476 24.95Z" fill="#CBA783"/>
<path d="M62.5858 27.6526C62.632 27.6526 62.6782 27.668 62.709 27.6988C63.8409 28.7152 64.2259 28.6921 64.8034 28.6536C65.1345 28.6305 65.5426 28.6074 66.1509 28.7537C66.8747 28.9308 67.2366 29.2388 67.56 29.516C68.0143 29.901 68.407 30.2398 69.793 30.1474C69.9162 30.1474 69.9855 30.2167 69.9932 30.3245C70.0009 30.4246 69.9239 30.517 69.8161 30.5247C68.2761 30.6248 67.7833 30.209 67.3136 29.8009C66.9979 29.5314 66.6976 29.2773 66.0585 29.1233C65.5041 28.9924 65.1422 29.0155 64.8188 29.0309C64.1027 29.0771 63.6407 29.0463 62.4472 27.976C62.3702 27.9067 62.3625 27.7912 62.4318 27.7142C62.478 27.6757 62.5319 27.6526 62.5858 27.6526Z" fill="#CBA783"/>
<path d="M69.8085 30.1705C69.8624 30.1705 69.9163 30.1936 69.9548 30.2398C70.0164 30.3245 70.0087 30.44 69.924 30.5016C68.1376 31.9338 67.4292 31.6412 66.6053 31.3024C66.3358 31.1869 66.0509 31.0791 65.7044 31.0098C65.1808 30.9097 64.8728 30.9713 64.5186 31.0406C63.9488 31.1561 63.302 31.287 61.7004 30.6941C61.6003 30.6556 61.5541 30.5478 61.5926 30.4554C61.6311 30.3553 61.7389 30.3091 61.8313 30.3476C63.3328 30.902 63.9026 30.7865 64.4493 30.6787C64.8112 30.6017 65.1885 30.5324 65.7814 30.6479C66.1664 30.7249 66.4821 30.8481 66.7516 30.9636C67.5216 31.2793 68.076 31.5103 69.693 30.2167C69.7238 30.1859 69.7623 30.1705 69.8085 30.1705Z" fill="#CBA783"/>
<path d="M69.8239 30.1473C69.9009 30.1473 69.9779 30.1935 70.001 30.2705C70.0318 30.3475 70.0164 30.4322 69.9548 30.4784L69.8393 30.3783L69.847 30.5169C69.7315 30.5323 69.6391 30.4476 69.6314 30.3398C69.6237 30.2397 69.693 30.1473 69.7931 30.1396C69.8008 30.1473 69.8162 30.1473 69.8239 30.1473Z" fill="#CBA783"/>
<path d="M61.739 30.4708C61.7775 30.4708 61.8083 30.4862 61.8391 30.5093L67.1829 35.4065L60.3761 33.2582C60.2991 33.2351 60.2529 33.1504 60.276 33.0657C60.2991 32.9887 60.3838 32.9425 60.4685 32.9656L65.9817 34.7058L61.6389 30.7249C61.5773 30.671 61.5773 30.5709 61.6312 30.5093C61.6543 30.4862 61.7005 30.4708 61.739 30.4708Z" fill="#CBA783"/>
<path d="M65.4347 38.7021C65.4578 38.7021 65.4886 38.7098 65.5117 38.7175C65.5887 38.756 65.6349 38.8407 65.6272 38.9254C65.6118 39.0101 65.5578 39.0717 65.4732 39.0871C65.3731 39.0948 65.2576 39.0332 65.2422 38.9331C65.2268 38.8484 65.2653 38.7714 65.3269 38.7406C65.3654 38.7175 65.4039 38.7021 65.4347 38.7021Z" fill="#CBA783"/>
<path d="M60.422 32.9271C60.499 32.9271 60.576 32.9733 60.5991 33.058C61.0765 34.5056 61.4153 34.675 61.9389 34.9368C62.2315 35.0831 62.6011 35.2679 63.0554 35.6991C63.5944 36.215 63.7561 36.6616 63.8947 37.062C64.0949 37.6241 64.2643 38.1092 65.5117 38.7252C65.6041 38.7714 65.6426 38.8869 65.5964 38.9793C65.5502 39.0717 65.4347 39.1102 65.3423 39.064C63.9563 38.3787 63.7484 37.8012 63.5328 37.1852C63.3942 36.7925 63.2633 36.4229 62.7859 35.9686C62.3701 35.5759 62.0467 35.4142 61.7618 35.2756C61.1227 34.9599 60.73 34.7058 60.2372 33.1812C60.2064 33.0811 60.2603 32.9733 60.3604 32.9425C60.3835 32.9348 60.3989 32.9271 60.422 32.9271Z" fill="#CBA783"/>
<path d="M58.3738 34.8367C58.4277 34.8367 58.4816 34.8598 58.5201 34.906C59.5442 36.138 60.0909 36.3228 60.6222 36.4999C60.9687 36.6154 61.3383 36.7386 61.7926 37.139C62.0852 37.4008 62.2931 37.6626 62.4779 37.9013C62.9861 38.5635 63.3557 39.0332 65.3962 38.7252C65.504 38.7098 65.5964 38.7791 65.6118 38.8792C65.6272 38.9793 65.5579 39.0794 65.4578 39.0948C63.194 39.4413 62.7243 38.833 62.1853 38.1323C62.0082 37.9013 61.8234 37.6626 61.5539 37.4239C61.1535 37.0774 60.8532 36.9773 60.5067 36.8541C59.9523 36.6693 59.3286 36.4614 58.2352 35.1447C58.1659 35.0677 58.1813 34.9445 58.2583 34.8829C58.2814 34.8521 58.3276 34.8367 58.3738 34.8367Z" fill="#CBA783"/>
<path d="M58.2969 34.9445C58.3585 34.9445 58.4201 34.983 58.4432 35.0523L60.6223 41.9669L55.7944 36.7001C55.7405 36.6385 55.7405 36.5461 55.8021 36.4845C55.8637 36.4306 55.9561 36.4306 56.0177 36.4922L59.9293 40.758L58.1583 35.137C58.1352 35.06 58.1737 34.9753 58.2584 34.9445C58.2661 34.9522 58.2815 34.9445 58.2969 34.9445Z" fill="#CBA783"/>
<path d="M55.9097 36.4152C55.9251 36.4152 55.9328 36.4152 55.9482 36.4152C56.0483 36.4383 56.1176 36.5384 56.0945 36.6385C55.7788 38.1323 55.9944 38.448 56.3101 38.9331C56.4949 39.2103 56.7182 39.5491 56.8953 40.1497C57.1109 40.8658 57.0185 41.3355 56.9415 41.7513C56.8337 42.3365 56.7413 42.8447 57.5113 44.0074C57.5652 44.0921 57.5421 44.2076 57.4574 44.2692C57.3727 44.3231 57.2572 44.3 57.1956 44.2153C56.3332 42.9294 56.4487 42.298 56.5642 41.682C56.6412 41.2739 56.7105 40.8812 56.5257 40.2575C56.364 39.7108 56.1638 39.4105 55.9867 39.141C55.594 38.5481 55.3784 38.1323 55.7095 36.5615C55.7403 36.4768 55.825 36.4152 55.9097 36.4152Z" fill="#CBA783"/>
<path d="M57.3728 43.9304C57.4344 43.9304 57.4883 43.9612 57.5191 44.0151C57.5576 44.0844 57.5576 44.1845 57.5114 44.2461C57.4575 44.3077 57.3805 44.3385 57.3035 44.3077L57.3343 44.1537L57.2111 44.2307C57.1572 44.146 57.1803 44.0151 57.265 43.9612C57.3035 43.9381 57.342 43.9304 57.3728 43.9304Z" fill="#CBA783"/>
<path d="M53.1761 37.0465C53.2685 37.0465 53.3455 37.1081 53.3609 37.2005C53.6304 38.779 54.0154 39.2102 54.3773 39.6337C54.6237 39.9109 54.8778 40.1958 55.0703 40.7733C55.2012 41.1429 55.2397 41.4817 55.2859 41.7743C55.4014 42.5982 55.4784 43.1988 57.4034 43.9457C57.5035 43.9842 57.5497 44.092 57.5112 44.1921C57.4727 44.2922 57.3649 44.3384 57.2648 44.2999C55.1319 43.4683 55.0241 42.706 54.9086 41.8282C54.8701 41.5356 54.8316 41.2353 54.7161 40.8965C54.539 40.3883 54.3388 40.1573 54.0924 39.8801C53.7074 39.4412 53.2685 38.9484 52.9836 37.2621C52.9682 37.162 53.0375 37.0619 53.1376 37.0465C53.1607 37.0465 53.1684 37.0465 53.1761 37.0465Z" fill="#CBA783"/>
<path d="M53.0839 37.1083C53.0916 37.1083 53.107 37.1083 53.1147 37.1083C53.1994 37.1237 53.2456 37.2084 53.2302 37.2854L51.6594 44.3617L50.1348 37.5087C50.1194 37.424 50.1656 37.347 50.2503 37.3316C50.335 37.3162 50.412 37.3624 50.4274 37.4471L51.6517 42.9757L52.9299 37.2238C52.953 37.1545 53.0146 37.1083 53.0839 37.1083Z" fill="#CBA783"/>
<path d="M62.4856 26.2589H63.9563C64.0564 26.2589 64.1411 26.3436 64.1411 26.4437C64.1411 26.5438 64.0564 26.6285 63.9563 26.6285H62.4856C62.3855 26.6285 62.3008 26.5438 62.3008 26.4437C62.3008 26.3436 62.3778 26.2589 62.4856 26.2589Z" fill="#CBA783"/>
<path d="M62.1775 28.8307C62.2237 28.8307 62.2776 28.8461 62.3084 28.8846C62.3161 28.8923 62.9783 29.5545 63.6482 29.7085C63.7483 29.7316 63.8099 29.8317 63.7945 29.9318C63.7714 30.0319 63.6713 30.1012 63.5712 30.0781C62.7935 29.9087 62.0774 29.1849 62.0466 29.1541C61.9773 29.0771 61.9773 28.9616 62.0466 28.8923C62.0851 28.8461 62.1313 28.8307 62.1775 28.8307Z" fill="#CBA783"/>
<path d="M61.0378 31.672C61.0686 31.672 61.0994 31.6797 61.1302 31.6951L62.4084 32.4343C62.5008 32.4882 62.5316 32.6037 62.4777 32.6884C62.4238 32.7808 62.3083 32.8116 62.2236 32.7577L60.9454 32.0185C60.853 31.9646 60.8222 31.8491 60.8761 31.7644C60.9069 31.7028 60.9685 31.672 61.0378 31.672Z" fill="#CBA783"/>
<path d="M59.4827 33.7433C59.5674 33.7433 59.6444 33.7972 59.6675 33.8819C59.6675 33.8896 59.9062 34.7982 60.4144 35.2602C60.4914 35.3295 60.4991 35.4527 60.4221 35.522C60.3528 35.599 60.2373 35.6067 60.1603 35.5297C59.5751 34.9907 59.3133 34.0128 59.3056 33.9666C59.2825 33.8665 59.3364 33.7664 59.4442 33.7356C59.4519 33.7433 59.4673 33.7433 59.4827 33.7433Z" fill="#CBA783"/>
<path d="M57.0725 35.6298C57.1341 35.6298 57.2034 35.6606 57.2342 35.7222L57.9734 37.0004C58.0273 37.0928 57.9965 37.2083 57.9041 37.2545C57.8117 37.3084 57.6962 37.2776 57.65 37.1852L56.9108 35.907C56.8569 35.8146 56.8877 35.6991 56.9801 35.6529C57.0109 35.6375 57.0417 35.6298 57.0725 35.6298Z" fill="#CBA783"/>
<path d="M54.6934 36.6539C54.7088 36.6539 54.7242 36.6539 54.7396 36.6616C54.8397 36.6924 54.9013 36.7925 54.8705 36.8926C54.8705 36.9003 54.6241 37.8089 54.832 38.4634C54.8628 38.5635 54.8089 38.6713 54.7088 38.7021C54.6087 38.7329 54.5009 38.679 54.4701 38.5789C54.2314 37.8166 54.4932 36.8387 54.5086 36.8002C54.5317 36.7078 54.6087 36.6539 54.6934 36.6539Z" fill="#CBA783"/>
<path d="M51.6594 37.0851C51.7595 37.0851 51.8442 37.1698 51.8442 37.2699V38.7406C51.8442 38.8407 51.7595 38.9254 51.6594 38.9254C51.5593 38.9254 51.4746 38.8407 51.4746 38.7406V37.2699C51.4746 37.1621 51.5593 37.0851 51.6594 37.0851Z" fill="#CBA783"/>
<path d="M75.3291 21.8622C75.4677 21.8622 75.5832 21.9777 75.5832 22.1163C75.5832 22.2549 75.4677 22.3704 75.3291 22.3704C59.906 22.3704 47.3627 34.9137 47.3627 50.3368C47.3627 50.4754 47.2472 50.5909 47.1086 50.5909C46.97 50.5909 46.8545 50.4754 46.8545 50.3368C46.8622 34.6288 59.6288 21.8622 75.3291 21.8622Z" fill="#CBA783"/>
<path d="M38.346 35.9147L39.2084 39.3489L42.7427 39.5953L39.7397 41.4741L40.6021 44.9083L37.884 42.6368L34.881 44.5156L36.2054 41.2277L33.4873 38.9562L37.0216 39.2026L38.346 35.9147ZM41.5646 39.8879L38.9158 39.7031L38.269 37.1236L37.2757 39.5876L34.6269 39.4028L36.6674 41.1122L35.6741 43.5762L37.9302 42.1671L39.9707 43.8765L39.3239 41.297L41.5646 39.8879Z" fill="#CBA783"/>
<path d="M63.956 8.11768L66.2275 10.8358L69.5154 9.51137L67.6366 12.5144L69.9081 15.2325L66.4739 14.3701L64.5951 17.3731L64.3487 13.8388L60.9146 12.9764L64.2024 11.652L63.956 8.11768ZM66.1197 11.2824L64.4103 9.24188L64.5951 11.8907L62.1312 12.884L64.7106 13.5308L64.8954 16.1796L66.3045 13.9235L68.884 14.5703L67.1746 12.5298L68.5837 10.2737L66.1197 11.2824Z" fill="#CBA783"/>
</svg>
