<svg width="12" height="13" viewBox="0 0 12 13" fill="none" xmlns="http://www.w3.org/2000/svg">
<path d="M1 12.5C1 9.74 3.24 7.5 6 7.5C8.76 7.5 11 9.74 11 12.5" stroke="#413E59" stroke-miterlimit="10"/>
<path d="M6 5C7.24264 5 8.25 3.99264 8.25 2.75C8.25 1.50736 7.24264 0.5 6 0.5C4.75736 0.5 3.75 1.50736 3.75 2.75C3.75 3.99264 4.75736 5 6 5Z" stroke="#413E59" stroke-miterlimit="10"/>
</svg>
