<svg width="290" height="101" viewBox="0 0 290 101" fill="none" xmlns="http://www.w3.org/2000/svg">
<path d="M272.663 90.0357C273.635 90.8067 274.866 91.2616 276.197 91.2616C279.364 91.2616 281.935 88.6712 281.935 85.4794C281.935 84.1071 281.46 82.8505 280.672 81.856" stroke="#CBA783" stroke-width="0.75" stroke-miterlimit="10"/>
<path d="M272.059 92.8726C275.264 94.6998 279.41 94.2372 282.141 91.4772C284.964 88.6324 285.362 84.2765 283.342 81" stroke="#CBA783" stroke-miterlimit="9.56677" stroke-linecap="round" stroke-dasharray="1 2"/>
<path d="M1 1V100H271.062C271.062 93.8885 272.557 81 289 79V1H1Z" stroke="#CBA783" stroke-miterlimit="10"/>
<path opacity="0.25" d="M4.98633 96V5H286.011V75.5C274.113 76.5715 266.578 90 266.578 96H4.98633Z" stroke="#CBA783" stroke-width="0.5" stroke-miterlimit="10"/>
</svg>
